<svg xmlns="http://www.w3.org/2000/svg" xmlns:xlink="http://www.w3.org/1999/xlink" width="70px" height="72px">
    <path fill-rule="evenodd"  fill="rgb(46, 184, 228)"
          d="M67.742,36.000 C67.742,48.603 57.612,58.857 45.161,58.857 C38.603,58.857 32.706,55.995 28.577,51.458 C32.369,53.982 37.269,55.428 42.903,55.428 C49.972,55.428 54.675,51.921 54.871,51.772 L53.518,49.941 C53.476,49.974 49.189,53.142 42.903,53.142 C38.195,53.142 34.096,52.100 30.827,50.236 C32.151,50.635 33.549,50.857 35.000,50.857 C48.696,50.857 59.839,39.578 59.839,25.714 C59.839,11.851 48.696,0.571 35.000,0.571 L35.000,2.857 C47.451,2.857 57.581,13.111 57.581,25.714 C57.581,32.355 54.752,38.323 50.271,42.503 C52.764,38.664 54.194,33.702 54.194,28.000 C54.194,20.844 50.728,16.084 50.581,15.885 L48.773,17.255 C48.805,17.298 51.936,21.638 51.936,28.000 C51.936,32.766 50.905,36.916 49.064,40.225 C49.458,38.885 49.677,37.469 49.677,36.000 C49.677,22.136 38.535,10.857 24.839,10.857 C11.142,10.857 0.000,22.136 0.000,36.000 L2.258,36.000 C2.258,23.396 12.388,13.142 24.839,13.142 C31.397,13.142 37.294,16.006 41.423,20.541 C37.631,18.018 32.731,16.571 27.097,16.571 C20.028,16.571 15.326,20.079 15.129,20.229 L16.482,22.058 C16.525,22.026 20.811,18.857 27.097,18.857 C31.805,18.857 35.904,19.901 39.173,21.763 C37.849,21.364 36.451,21.143 35.000,21.143 C21.304,21.143 10.161,32.421 10.161,46.286 C10.161,60.150 21.304,71.428 35.000,71.428 L35.000,69.143 C22.549,69.143 12.419,58.889 12.419,46.286 C12.419,39.647 15.248,33.678 19.729,29.498 C17.236,33.338 15.807,38.297 15.807,43.999 C15.807,51.157 19.271,55.915 19.419,56.114 L21.227,54.745 C21.195,54.702 18.065,50.363 18.065,43.999 C18.065,39.234 19.095,35.085 20.936,31.776 C20.542,33.117 20.323,34.532 20.323,36.000 C20.323,49.864 31.465,61.142 45.161,61.142 C58.858,61.142 70.000,49.864 70.000,36.000 L67.742,36.000 ZM33.729,23.493 C34.149,23.464 34.568,23.429 35.000,23.429 C41.418,23.429 46.716,28.385 47.355,34.714 C47.384,35.139 47.419,35.562 47.419,36.000 C47.419,42.497 42.524,47.860 36.271,48.506 C35.851,48.536 35.432,48.571 35.000,48.571 C28.581,48.571 23.284,43.617 22.645,37.287 C22.616,36.862 22.581,36.438 22.581,36.000 C22.581,29.503 27.476,24.141 33.729,23.493 Z"/>
</svg>